{
  "name": {
    "en": "etiquettes",
    "es": "etiquetas"
  },
  "description": {
    "en": "Ettiquette of the transaction",
    "es": "Etiqueta de la transacción"
  },
  "documentationUrl": {
    "es": "https://gitlab.com/MaEliK/ocds_etiquette_extension/blob/master/README.md"
  }
}